module gitlab.com/snehaldangroshiya/contacts

go 1.17

require (
	github.com/gorilla/mux v1.8.0
	github.com/mitchellh/go-homedir v1.1.0
	github.com/nicksnyder/go-i18n/v2 v2.2.0
	github.com/pborman/uuid v1.2.1
	github.com/rs/cors v1.8.2
	github.com/sirupsen/logrus v1.6.0
	github.com/snehal1112/transport v1.0.5
	github.com/spf13/cobra v1.3.0
	github.com/spf13/viper v1.10.1
	go.mongodb.org/mongo-driver v1.8.3
	golang.org/x/text v0.3.7
)

require (
	github.com/fsnotify/fsnotify v1.5.1 // indirect
	github.com/go-stack/stack v1.8.0 // indirect
	github.com/golang/snappy v0.0.3 // indirect
	github.com/google/uuid v1.1.2 // indirect
	github.com/hashicorp/hcl v1.0.0 // indirect
	github.com/inconshreveable/mousetrap v1.0.0 // indirect
	github.com/klauspost/compress v1.13.6 // indirect
	github.com/konsorten/go-windows-terminal-sequences v1.0.3 // indirect
	github.com/magiconair/properties v1.8.5 // indirect
	github.com/mitchellh/mapstructure v1.4.3 // indirect
	github.com/pelletier/go-toml v1.9.4 // indirect
	github.com/pkg/errors v0.9.1 // indirect
	github.com/spf13/afero v1.6.0 // indirect
	github.com/spf13/cast v1.4.1 // indirect
	github.com/spf13/jwalterweatherman v1.1.0 // indirect
	github.com/spf13/pflag v1.0.5 // indirect
	github.com/subosito/gotenv v1.2.0 // indirect
	github.com/xdg-go/pbkdf2 v1.0.0 // indirect
	github.com/xdg-go/scram v1.0.2 // indirect
	github.com/xdg-go/stringprep v1.0.2 // indirect
	github.com/youmark/pkcs8 v0.0.0-20181117223130-1be2e3e5546d // indirect
	golang.org/x/crypto v0.0.0-20210817164053-32db794688a5 // indirect
	golang.org/x/sync v0.0.0-20210220032951-036812b2e83c // indirect
	golang.org/x/sys v0.0.0-20211210111614-af8b64212486 // indirect
	gopkg.in/ini.v1 v1.66.2 // indirect
	gopkg.in/yaml.v2 v2.4.0 // indirect
)
